%YAML 1.1
%TAG !u! tag:unity3d.com,2011:
--- !u!114 &11400000
MonoBehaviour:
  m_ObjectHideFlags: 0
  m_CorrespondingSourceObject: {fileID: 0}
  m_PrefabInstance: {fileID: 0}
  m_PrefabAsset: {fileID: 0}
  m_GameObject: {fileID: 0}
  m_Enabled: 1
  m_EditorHideFlags: 0
  m_Script: {fileID: 11500000, guid: a65287d6125c34b89b3dd2dcb73b0812, type: 3}
  m_Name: 63330E68-3866-42DF-A6A4-5BC734501471
  m_EditorClassIdentifier: 
  objectName: STATE_Exploration
  id: 3594033046
  guid: 63330E68-3866-42DF-A6A4-5BC734501471
  WwiseStateGroupReference: {fileID: 11400000, guid: d423b654f1d5d4169badf21b17a50365, type: 2}
