%YAML 1.1
%TAG !u! tag:unity3d.com,2011:
--- !u!114 &11400000
MonoBehaviour:
  m_ObjectHideFlags: 0
  m_CorrespondingSourceObject: {fileID: 0}
  m_PrefabInstance: {fileID: 0}
  m_PrefabAsset: {fileID: 0}
  m_GameObject: {fileID: 0}
  m_Enabled: 1
  m_EditorHideFlags: 0
  m_Script: {fileID: 11500000, guid: a65287d6125c34b89b3dd2dcb73b0812, type: 3}
  m_Name: FE3F55FD-CABE-45A4-B204-2BE912CA3A66
  m_EditorClassIdentifier: 
  objectName: STATE_Corridor
  id: 2322225605
  guid: FE3F55FD-CABE-45A4-B204-2BE912CA3A66
  WwiseStateGroupReference: {fileID: 11400000, guid: dc9a2a70326bd498a9f550bdad61d073, type: 2}
