%YAML 1.1
%TAG !u! tag:unity3d.com,2011:
--- !u!114 &11400000
MonoBehaviour:
  m_ObjectHideFlags: 0
  m_CorrespondingSourceObject: {fileID: 0}
  m_PrefabInstance: {fileID: 0}
  m_PrefabAsset: {fileID: 0}
  m_GameObject: {fileID: 0}
  m_Enabled: 1
  m_EditorHideFlags: 0
  m_Script: {fileID: 11500000, guid: e18fcd61e0ae240e590728e19347a0e8, type: 3}
  m_Name: 95F1DB0D-2D69-4C99-92D2-8CCFE5683C16
  m_EditorClassIdentifier: 
  objectName: STATE_Rain
  id: 2636934089
  guid: 95F1DB0D-2D69-4C99-92D2-8CCFE5683C16
