%YAML 1.1
%TAG !u! tag:unity3d.com,2011:
--- !u!114 &11400000
MonoBehaviour:
  m_ObjectHideFlags: 0
  m_CorrespondingSourceObject: {fileID: 0}
  m_PrefabInstance: {fileID: 0}
  m_PrefabAsset: {fileID: 0}
  m_GameObject: {fileID: 0}
  m_Enabled: 1
  m_EditorHideFlags: 0
  m_Script: {fileID: 11500000, guid: 548fe4f584f934441af5ef8e841a6aff, type: 3}
  m_Name: 391C94B2-C612-4B3E-BDD6-813A792DD959
  m_EditorClassIdentifier: 
  objectName: Play_Jump_Surface_SWITCH
  id: 3681686353
  guid: 391C94B2-C612-4B3E-BDD6-813A792DD959
