%YAML 1.1
%TAG !u! tag:unity3d.com,2011:
--- !u!114 &11400000
MonoBehaviour:
  m_ObjectHideFlags: 0
  m_CorrespondingSourceObject: {fileID: 0}
  m_PrefabInstance: {fileID: 0}
  m_PrefabAsset: {fileID: 0}
  m_GameObject: {fileID: 0}
  m_Enabled: 1
  m_EditorHideFlags: 0
  m_Script: {fileID: 11500000, guid: 548fe4f584f934441af5ef8e841a6aff, type: 3}
  m_Name: 851CDD4C-D7B0-419A-9C41-65D906FA420F
  m_EditorClassIdentifier: 
  objectName: Play_Catana_Whoosh_weak_attack
  id: 2478160983
  guid: 851CDD4C-D7B0-419A-9C41-65D906FA420F
