%YAML 1.1
%TAG !u! tag:unity3d.com,2011:
--- !u!114 &11400000
MonoBehaviour:
  m_ObjectHideFlags: 0
  m_CorrespondingSourceObject: {fileID: 0}
  m_PrefabInstance: {fileID: 0}
  m_PrefabAsset: {fileID: 0}
  m_GameObject: {fileID: 0}
  m_Enabled: 1
  m_EditorHideFlags: 0
  m_Script: {fileID: 11500000, guid: 548fe4f584f934441af5ef8e841a6aff, type: 3}
  m_Name: 893B33B7-8D7B-4347-939A-61C525FC979A
  m_EditorClassIdentifier: 
  objectName: Play_BigFire4
  id: 2135458904
  guid: 893B33B7-8D7B-4347-939A-61C525FC979A
