%YAML 1.1
%TAG !u! tag:unity3d.com,2011:
--- !u!114 &11400000
MonoBehaviour:
  m_ObjectHideFlags: 0
  m_CorrespondingSourceObject: {fileID: 0}
  m_PrefabInstance: {fileID: 0}
  m_PrefabAsset: {fileID: 0}
  m_GameObject: {fileID: 0}
  m_Enabled: 1
  m_EditorHideFlags: 0
  m_Script: {fileID: 11500000, guid: 548fe4f584f934441af5ef8e841a6aff, type: 3}
  m_Name: 957FCC67-0441-42B6-8CFD-A239116D6ED3
  m_EditorClassIdentifier: 
  objectName: Play_BigFire1
  id: 2135458909
  guid: 957FCC67-0441-42B6-8CFD-A239116D6ED3
